id_child,id_puskes,no_regis,created_at
1872,3,PGRIAN290479333087,2017-10-31
1873,3,PGRIAN360847351008,2017-08-06
1874,3,PGRIAN656675782533,2017-08-11
1875,3,PGRIAN115207708771,2017-11-04
1876,3,PGRIAN855129226762,2017-11-01
1877,3,PGRIAN018304655972,2017-08-14
1878,3,PGRIAN148245724395,2017-01-27
1879,3,PGRIAN671236397827,2017-10-25
1880,3,PGRIAN804954011134,2017-09-04
1881,3,PGRIAN992036751857,2017-01-18
1882,3,PGRIAN286023908020,2017-08-16
1883,3,PGRIAN947128789059,2017-08-08
1884,3,PGRIAN135164618738,2017-08-11
1885,3,PGRIAN423209139154,2017-11-03
1886,3,PGRIAN599044858262,2017-10-28
1887,3,PGRIAN201436474569,2017-11-25
1888,3,PGRIAN047519469240,2017-12-25
1889,3,PGRIAN843568127973,2017-10-28
1890,3,PGRIAN737934428798,2017-12-06
1891,3,PGRIAN150922897190,2017-11-02
1892,3,PGRIAN698272525764,2017-09-05
1893,3,PGRIAN559508041255,2017-11-06
1894,3,PGRIAN039459438298,2017-03-15
1895,3,PGRIAN627242848004,2017-04-13
1896,3,PGRIAN186951418509,2017-02-19
1897,3,PGRIAN071504524722,2017-09-19
1898,3,PGRIAN386684660412,2017-01-29
1899,3,PGRIAN510016562091,2017-10-24
1900,3,PGRIAN255745784199,2017-11-20
1901,3,PGRIAN043331267772,2017-10-27
1902,3,PGRIAN890042739161,2017-12-22
1903,3,PGRIAN191933769578,2017-10-03
1904,3,PGRIAN670170542704,2017-08-29
1905,3,PGRIAN038880764124,2017-10-13
1906,3,PGRIAN920346174575,2017-11-20
1907,3,PGRIAN646593432226,2017-10-27
1908,3,PGRIAN197795320359,2017-10-21
1909,3,PGRIAN361167458062,2017-07-29
1910,3,PGRIAN568349614813,2017-07-22
1911,3,PGRIAN062654267510,2017-09-11
1912,3,PGRIAN404638069221,2017-07-13
1913,3,PGRIAN336814445357,2017-12-27
1914,3,PGRIAN839317992039,2017-03-05
1915,3,PGRIAN957974640166,2017-07-30
1916,3,PGRIAN910803645275,2017-06-10
1917,3,PGRIAN219073358354,2017-10-23
1918,3,PGRIAN991668019542,2017-08-02
1919,3,PGRIAN351412220656,2017-11-30
1920,3,PGRIAN579546027721,2017-11-10
1921,3,PGRIAN058584069469,2017-07-31
1922,3,PGRIAN125057957592,2017-11-18
1923,3,PGRIAN914441638742,2017-12-24
1924,3,PGRIAN525412187464,2017-12-02
1925,3,PGRIAN100519409857,2017-12-10
1926,3,PGRIAN677990042551,2017-10-16
1927,3,PGRIAN873575239367,2017-09-06
1928,3,PGRIAN439757695628,2017-11-30
1929,3,PGRIAN819374130316,2017-10-02
1930,3,PGRIAN711344351036,2017-10-21
1931,3,PGRIAN644398163270,2017-03-20
1932,3,PGRIAN964354479636,2017-03-17
1933,3,PGRIAN828886613146,2018-01-23
1934,3,PGRIAN341003533910,2018-01-02
1935,3,PGRIAN810100659703,2017-01-25
1936,3,PGRIAN895665279330,2017-12-17
1937,3,PGRIAN274544612523,2018-01-14
1938,3,PGRIAN553391761211,2017-12-30
1939,3,PGRIAN978341393046,2017-08-25
1940,3,PGRIAN326491253196,2017-12-06
1941,3,PGRIAN293362539615,2017-04-24
1942,3,PGRIAN952502473334,2018-01-17
1943,3,PGRIAN490084829433,2017-05-20
1944,3,PGRIAN538303481132,2017-11-26
1945,3,PGRIAN980753529139,2017-11-04
1946,3,PGRIAN662224538070,2017-11-04
1947,3,PGRIAN196900907063,2017-09-06
1948,3,PGRIAN564388776763,2017-12-02
1949,3,PGRIAN097801420891,2017-03-28
1950,3,PGRIAN956693497928,2018-02-01
1951,3,PGRIAN876868212912,2018-01-24
1952,3,PGRIAN861677757965,2017-04-19
1953,3,PGRIAN188060968186,2018-01-15
1954,3,PGRIAN951630958123,2017-03-17
1955,3,PGRIAN451389868308,2018-01-26
1956,3,PGRIAN526493782274,2017-05-10
1957,3,PGRIAN767810626661,2017-05-22
1958,3,PGRIAN111832380569,2017-05-14
1959,3,PGRIAN253025684729,2018-01-18
1960,3,PGRIAN832987532674,2017-04-19
1961,3,PGRIAN805118848598,2017-08-29
1962,3,PGRIAN229558599742,2017-12-14
1963,3,PGRIAN852437318797,2017-03-24
1964,3,PGRIAN125699487358,2018-01-10
1965,3,PGRIAN429408594613,2017-04-19
1966,3,PGRIAN287510811873,2017-03-30
1967,3,PGRIAN059770081537,2017-11-20
1968,3,PGRIAN778379189580,2017-10-23
1969,3,PGRIAN127962177084,2018-02-06
1970,3,PGRIAN586500697082,2018-01-21
1971,3,PGRIAN656315521501,2017-05-14
1972,3,PGRIAN072640867587,2017-12-10
1973,3,PGRIAN437091128088,2017-10-02
1974,3,PGRIAN034583752049,2017-08-13
1975,3,PGRIAN694277481290,2017-05-24
1976,3,PGRIAN080041723722,2018-02-14
1977,3,PGRIAN327201925609,2017-05-02
1978,3,PGRIAN650832661383,2017-03-21
1979,3,PGRIAN424260431544,2017-12-21
1980,3,PGRIAN499636164784,2017-11-19
1981,3,PGRIAN068323246346,2017-10-04
1982,3,PGRIAN350073142651,2017-06-04
1983,3,PGRIAN257955218956,2017-12-24
1984,3,PGRIAN510499887261,2017-11-15
1985,3,PGRIAN850213115290,2017-12-19
1986,3,PGRIAN673968684917,2018-01-01
1987,3,PGRIAN135992420409,2017-04-19
1988,3,PGRIAN580978908526,2018-02-19
1989,3,PGRIAN054011874727,2017-10-08
1990,3,PGRIAN453290839436,2017-10-26
1991,3,PGRIAN111726599175,2017-11-30
1992,3,PGRIAN653916725167,2018-01-19
1993,3,PGRIAN624250633650,2017-05-05
1994,3,PGRIAN398929277940,2017-06-29
1995,3,PGRIAN349141496652,2018-01-23
1996,3,PGRIAN565208319101,2018-03-02
1997,3,PGRIAN922958322016,2018-03-06
1998,3,PGRIAN020183978553,2017-02-19
1999,3,PGRIAN301884957910,2018-03-01
2000,3,PGRIAN993583854991,2017-05-07
2001,3,PGRIAN290538509342,2018-01-03
2002,3,PGRIAN767722465783,2017-11-26
2003,3,PGRIAN341849281014,2017-12-16
2004,3,PGRIAN666390854926,2018-01-04
2005,3,PGRIAN177408018511,2017-05-09
2006,3,PGRIAN323742055172,2017-06-02
2007,3,PGRIAN815235098806,2018-02-26
2008,3,PGRIAN652940971828,2017-01-24
2009,3,PGRIAN487787631384,2017-11-10
2010,3,PGRIAN418641963109,2017-09-07
2011,3,PGRIAN134928752456,2017-09-29
2012,3,PGRIAN879709218761,2017-10-03
2013,3,PGRIAN273290582743,2017-11-13
2014,3,PGRIAN105716283634,2017-05-20
2015,3,PGRIAN565613303859,2017-11-20
2016,3,PGRIAN691342693099,2018-01-10
2017,3,PGRIAN313860549473,2018-01-26
2018,3,PGRIAN149935593728,2017-10-01
2019,3,PGRIAN698381204141,2018-02-23
2020,3,PGRIAN204894898158,2017-02-09
2021,3,PGRIAN727660618046,2018-01-24
2022,3,PGRIAN376690172610,2018-03-01
2023,3,PGRIAN786442155643,2018-03-02
2024,3,PGRIAN137861533194,2017-08-25
2025,3,PGRIAN156962523931,2018-01-22
2026,3,PGRIAN810318912642,2017-12-24
2027,3,PGRIAN994763719651,2018-03-16
2028,3,PGRIAN034399394316,2017-07-01
2029,3,PGRIAN438721221911,2018-01-09
2030,3,PGRIAN311541252542,2017-11-13
2031,3,PGRIAN854379857937,2017-07-01
2032,3,PGRIAN965008492187,2018-03-16
2033,3,PGRIAN893371479555,2017-05-02
2034,3,PGRIAN718678891233,2018-03-30
2035,3,PGRIAN980921948728,2017-09-12
2036,3,PGRIAN073152754150,2018-01-01
2037,3,PGRIAN026075812264,2018-03-22
2038,3,PGRIAN313544366640,2018-03-27
2039,3,PGRIAN922633284522,2017-11-15
2040,3,PGRIAN923791368368,2017-09-11
2041,3,PGRIAN286403614912,2017-11-25
2042,3,PGRIAN637547694548,2018-03-14
2043,3,PGRIAN140192859067,2018-03-10
2044,3,PGRIAN898240404015,2018-04-05
2045,3,PGRIAN001647949100,2017-05-01
2046,3,PGRIAN459447839219,2017-11-25
2047,3,PGRIAN324907799115,2018-04-04
2048,3,PGRIAN761422912012,2018-03-09
2049,3,PGRIAN767212917476,2018-02-17
2050,3,PGRIAN575117693822,2017-10-25
2051,3,PGRIAN702441616511,2017-12-01
2052,3,PGRIAN122462919121,2017-07-19
2053,3,PGRIAN593365880065,2018-04-01
2054,3,PGRIAN024168576200,2017-07-12
2055,3,PGRIAN586554581971,2017-07-07
2056,3,PGRIAN361667153769,2018-02-19
2057,3,PGRIAN445113364805,2018-01-15
2058,3,PGRIAN897806526014,2017-11-23
2059,3,PGRIAN175557748947,2018-03-20
2060,3,PGRIAN161754726067,2018-03-20
2061,3,PGRIAN158600469774,2018-02-28
2062,3,PGRIAN678396245528,2017-11-29
2063,3,PGRIAN324523913890,2017-07-20
2064,3,PGRIAN634955917900,2018-04-06
2065,3,PGRIAN729966266037,2018-04-09
2066,3,PGRIAN089477748849,2018-04-09
2067,3,PGRIAN880268350206,2018-04-11
2068,3,PGRIAN750909088077,2018-04-19
2069,3,PGRIAN611668113250,2018-04-25
2070,3,PGRIAN014676579189,2018-04-05
2071,3,PGRIAN288861764135,2018-04-09
2072,3,PGRIAN470297023319,2018-04-14
2073,3,PGRIAN609366965687,2018-04-24
2074,3,PGRIAN990082833807,2018-04-06
2075,3,PGRIAN146246986256,2018-03-10
2076,3,PGRIAN102362491345,2018-03-10
2077,3,PGRIAN822170863974,2018-03-18
2078,3,PGRIAN731935618799,2018-10-30
2079,3,PGRIAN642867742768,2018-03-18
2080,3,PGRIAN397317821843,2018-10-30
2081,3,PGRIAN056928003160,2017-11-02
2082,3,PGRIAN548265993969,2017-11-21
2083,3,PGRIAN640040786804,2017-09-02
2084,3,PGRIAN754594380307,2017-11-04
2085,3,PGRIAN776154762287,2018-03-17
2086,3,PGRIAN978761744717,2018-03-09
2087,3,PGRIAN655798218777,2017-12-07
2088,3,PGRIAN543822174929,2017-11-07
2089,3,PGRIAN052757337863,2017-06-24
2090,3,PGRIAN898364687304,2017-05-12
2091,3,PGRIAN509471592795,2018-01-15
2092,3,PGRIAN915280077199,2017-12-02
2093,3,PGRIAN316903600108,2018-02-28
2094,3,PGRIAN581915888422,2017-10-28
2095,3,PGRIAN491113840235,2017-06-30
2096,3,PGRIAN490814550306,2017-11-26
2097,3,PGRIAN943041007947,2017-07-31
2098,3,PGRIAN944722696003,2017-08-11
2099,3,PGRIAN972348719712,2018-03-10
2100,3,PGRIAN119046753841,2017-11-30
2101,3,PGRIAN486967617521,2017-12-24
2102,3,PGRIAN118551817236,2017-06-29
2103,3,PGRIAN853734364524,2017-10-16
2104,3,PGRIAN051685421583,2018-03-05
2105,3,PGRIAN938210448978,2018-01-05
2106,3,PGRIAN683978568515,2017-11-12
2107,3,PGRIAN992819219160,2017-09-28
2108,3,PGRIAN021475180480,2017-05-17
2109,3,PGRIAN938795248797,2018-03-11
2110,3,PGRIAN147454420719,2018-02-19
2111,3,PGRIAN296866004904,2017-11-28
2112,3,PGRIAN856879729964,2018-01-08
2113,3,PGRIAN818364234967,2018-02-10
2114,3,PGRIAN148190283288,2017-03-02
2115,3,PGRIAN380742918909,2017-10-17
2116,3,PGRIAN851425437170,2017-10-11
2117,3,PGRIAN963031631931,2018-01-24
2118,3,PGRIAN812084173493,2017-10-21
2119,3,PGRIAN713445050275,2018-02-18
2120,3,PGRIAN019207143141,2018-01-08
2121,3,PGRIAN792132719842,2018-05-25
2122,3,PGRIAN557541758004,2018-02-22
2123,3,PGRIAN638188043117,2018-02-23
2124,3,PGRIAN622270079390,2018-02-18
2125,3,PGRIAN301422830000,2017-07-17
2126,3,PGRIAN890030583398,2017-11-09
2127,3,PGRIAN357606583101,2018-03-02
2128,3,PGRIAN287621069126,2018-03-05
2129,3,PGRIAN289307958095,2018-03-02
2130,3,PGRIAN924870897355,2017-12-14
2131,3,PGRIAN784906806990,2017-12-27
2132,3,PGRIAN751012021781,2017-07-31
2133,3,PGRIAN282382276122,2017-07-24
2134,3,PGRIAN531851799892,2018-04-11
2135,3,PGRIAN611030173501,2017-07-16
2136,3,PGRIAN289160655963,2017-06-12
2137,3,PGRIAN383359625984,2017-07-07
2138,3,PGRIAN580705009988,2017-08-05
2139,3,PGRIAN491229087412,2017-11-20
2140,3,PGRIAN150190696464,2018-03-27
2141,3,PGRIAN235867700778,2017-12-17
2142,3,PGRIAN717148405834,2018-03-12
2143,3,PGRIAN100722387227,2018-03-25
2144,3,PGRIAN289586037938,2018-02-07
2145,3,PGRIAN847038980520,2018-02-19
2146,3,PGRIAN953174998731,2017-11-12
2147,3,PGRIAN764687791470,2018-04-08
2148,3,PGRIAN102102023021,2018-03-10
2149,3,PGRIAN515407449281,2017-07-31
2150,3,PGRIAN218251089320,2018-04-22
2151,3,PGRIAN037816294623,2018-02-23
2152,3,PGRIAN184224307632,2018-04-16
2153,3,PGRIAN052083178136,2017-07-05
2154,3,PGRIAN732837793208,2018-04-27
2155,3,PGRIAN541640756417,2017-03-18
2156,3,PGRIAN009938270766,2018-03-06
2157,3,PGRIAN163698427340,2018-03-14
2158,3,PGRIAN865226172594,2018-04-14
2159,3,PGRIAN039745412852,2018-07-12
2160,3,PGRIAN642630680631,2017-09-01
2161,3,PGRIAN226555827723,2018-02-21
2162,3,PGRIAN033457875640,2017-11-25
2163,3,PGRIAN594854668451,2018-03-22
2164,3,PGRIAN237871959429,2018-04-29
2165,3,PGRIAN178229247044,2017-04-24
2166,3,PGRIAN621852706613,2018-01-17
2167,3,PGRIAN883599314096,2017-09-09
2168,3,PGRIAN970021093969,2018-04-07
2169,3,PGRIAN705571532223,2018-08-08
2170,3,PGRIAN904083441675,2017-01-17
2171,3,PGRIAN868779151269,2017-10-24
2172,3,PGRIAN662307884998,2017-11-04
2173,3,PGRIAN202677782028,2017-04-11
2174,3,PGRIAN316815114141,2017-08-21
2175,3,PGRIAN293780159852,2017-10-03
2176,3,PGRIAN276181166674,2018-01-05
2177,3,PGRIAN170774978746,2017-10-04
2178,3,PGRIAN620820666397,2017-12-12
2179,3,PGRIAN263261953597,2107-08-08
2180,3,PGRIAN380104679664,2017-07-07
2181,3,PGRIAN250248650584,2017-06-03
2182,3,PGRIAN364969103580,2017-11-04
2183,3,PGRIAN789017153331,2017-09-13
2184,3,PGRIAN044600919022,2018-03-22
2185,3,PGRIAN697696952108,2018-01-23
2186,3,PGRIAN632303799889,2017-11-04
2187,3,PGRIAN624805633220,2017-07-22
2188,3,PGRIAN154343375061,2017-07-26
2189,3,PGRIAN537857030548,2017-06-05
2190,3,PGRIAN870097625606,2017-12-22
2191,3,PGRIAN087975109406,2017-05-10
2192,3,PGRIAN626284418701,2017-11-28
2193,3,PGRIAN736374352255,2017-06-12
2194,3,PGRIAN145957348326,2017-09-21
2195,3,PGRIAN828170020341,2017-03-18
2196,3,PGRIAN303019770160,2018-01-18
2197,3,PGRIAN807952913432,2017-10-17
2198,3,PGRIAN052123959257,2017-09-29
2199,3,PGRIAN893320621569,2018-04-22
2200,3,PGRIAN674641475820,2018-05-07
2201,3,PGRIAN799042141041,2018-05-22
2202,3,PGRIAN405002129081,2018-05-05
2203,3,PGRIAN743004046109,2017-07-01
2204,3,PGRIAN928004049896,2017-09-23
2205,3,PGRIAN201065389229,2018-04-10
2206,3,PGRIAN009894024364,2018-03-12
2207,3,PGRIAN980573328207,2017-12-28
2208,3,PGRIAN929864429199,2018-01-21
2209,3,PGRIAN194806721253,2018-03-01
2210,3,PGRIAN051119053666,2017-11-28
2211,3,PGRIAN817812404396,2018-04-11
2212,3,PGRIAN890903020457,2017-01-08
2213,3,PGRIAN938913640246,2017-09-22
2214,3,PGRIAN186088470294,2018-03-01
2215,3,PGRIAN717731457078,2017-11-28
2216,3,PGRIAN424357571464,2018-04-11
2217,3,PGRIAN354430948520,2017-01-08
2218,3,PGRIAN562117900940,2017-09-22
2219,3,PGRIAN283470924691,2016-09-24
2220,3,PGRIAN698103126140,2017-05-15
2221,3,PGRIAN411868680385,2016-04-11
2222,3,PGRIAN377559306216,2018-03-07
2223,3,PGRIAN511020057577,2017-11-28
2224,3,PGRIAN439399984577,2017-05-16
2225,3,PGRIAN941299741297,2018-02-01
2226,3,PGRIAN337409463437,2018-02-13
2227,3,PGRIAN177300411514,2018-03-10
2228,3,PGRIAN135781389094,2018-02-13
2229,3,PGRIAN233615236161,2018-03-10
2230,3,PGRIAN450034211101,2018-04-30
2231,3,PGRIAN985932589180,2018-02-22
2232,3,PGRIAN034270187860,2018-05-05
2233,3,PGRIAN101685110943,2018-05-17
2234,3,PGRIAN429364267108,2018-03-30
2235,3,PGRIAN008315382135,2018-03-29
2236,3,PGRIAN527332070995,2018-04-14
2237,3,PGRIAN555472891186,2017-09-09
2238,3,PGRIAN674108355949,2018-04-04
2239,3,PGRIAN687096109661,2018-09-07
2240,3,PGRIAN470510224946,2018-05-29
2241,3,PGRIAN913389646935,2018-05-07
2242,3,PGRIAN649648009545,2018-05-15
2243,3,PGRIAN315526103980,2018-05-20
2244,3,PGRIAN083993735228,2018-05-28
2245,3,PGRIAN492160669959,2018-03-20
2246,3,PGRIAN076217119855,2018-05-16
2247,3,PGRIAN134588441085,2017-07-21
2248,3,PGRIAN945944835398,2018-03-21
2249,3,PGRIAN346148919532,2018-05-09
2250,3,PGRIAN902994986519,2018-05-11
2251,3,PGRIAN452397869018,2018-07-20
2252,3,PGRIAN354785246163,2018-04-30
2253,3,PGRIAN294016173025,2018-05-09
2254,3,PGRIAN786926405746,2018-05-11
2255,3,PGRIAN504474597491,2018-05-25
2256,3,PGRIAN750463367622,2018-05-28
2257,3,PGRIAN048816219460,2018-05-28
2258,3,PGRIAN730824999157,2018-05-28
2259,3,PGRIAN158058666419,2018-04-28
2260,3,PGRIAN510363085492,2018-05-22
2261,3,PGRIAN274119597874,2018-01-19
2262,3,PGRIAN202981186969,2018-05-15
2263,3,PGRIAN898700047248,2018-05-19
2264,3,PGRIAN466386688531,2018-05-18
2265,3,PGRIAN374962124627,2018-05-06
2266,3,PGRIAN800856241893,2018-01-19
2267,3,PGRIAN594864996911,2018-05-26
2268,3,PGRIAN566923480258,2017-12-29
2269,3,PGRIAN565362196978,2018-05-20
2270,3,PGRIAN393873925287,2018-03-20
2271,3,PGRIAN420021455521,2018-05-22
2272,3,PGRIAN844448902635,2017-10-27
2273,3,PGRIAN034680185252,2017-10-27
2274,3,PGRIAN230421769731,2018-04-05
2275,3,PGRIAN961283619807,2018-06-02
2276,3,PGRIAN264833375140,2018-05-03
2277,3,PGRIAN780781493697,2018-05-26
2278,3,PGRIAN930455178581,2018-04-08
2279,3,PGRIAN033140741581,2018-04-16
2280,3,PGRIAN716189804580,2018-05-10
2281,3,PGRIAN741557178772,2018-08-16
2282,3,PGRIAN545642433775,2018-05-22
2283,3,PGRIAN908934300813,2018-04-24
2284,3,PGRIAN422873827119,2018-06-19
2285,3,PGRIAN459282787730,2018-04-08
2286,3,PGRIAN661912822015,2018-01-09
2287,3,PGRIAN260904818364,2018-01-03
2288,3,PGRIAN868326362365,2018-09-19
2289,3,PGRIAN823530492746,2018-05-28
2290,3,PGRIAN697004118515,2017-09-11
2291,3,PGRIAN846403304540,2018-05-20
2292,3,PGRIAN515409954154,2018-05-26
2293,3,PGRIAN578254807518,2018-06-01
2294,3,PGRIAN423031654758,2017-07-07
2295,3,PGRIAN283556205719,2017-08-05
2296,3,PGRIAN319051672823,2018-05-20
2297,3,PGRIAN782309019826,2018-05-28
2298,3,PGRIAN029871146484,2018-05-27
2299,3,PGRIAN864753861669,2018-05-06
2300,3,PGRIAN384499046331,2017-08-21
2301,3,PGRIAN994475444323,2018-06-07
2302,3,PGRIAN470090328197,2018-04-23
2303,3,PGRIAN724946147609,2018-08-26
2304,3,PGRIAN467313337237,2017-11-30
2305,3,PGRIAN496767346470,2018-05-31
2306,3,PGRIAN990663921011,2018-04-08
2307,3,PGRIAN060407338465,2018-07-14
2308,3,PGRIAN952205421743,2018-06-13
2309,3,PGRIAN999040606033,2018-06-02
2310,3,PGRIAN232775283399,2018-07-06
2311,3,PGRIAN705628386209,2018-05-04
2312,3,PGRIAN642367812135,2018-04-06
2313,3,PGRIAN404955888003,2017-12-11
2314,3,PGRIAN652976861167,2018-05-20
2315,3,PGRIAN863401642764,2018-05-20
2316,3,PGRIAN272664098967,2018-04-23
2317,3,PGRIAN800541200203,2018-03-10
2318,3,PGRIAN878772735844,2018-05-18
2319,3,PGRIAN366337917127,2018-06-30
2320,3,PGRIAN375744993188,2018-07-15
2321,3,PGRIAN005511627226,2017-09-24
2322,3,PGRIAN519990805515,2018-03-22
2323,3,PGRIAN990973347074,2018-04-13
2324,3,PGRIAN435967975109,2018-05-16
2325,3,PGRIAN180581902447,2018-07-29
2326,3,PGRIAN244372956238,2017-11-11
2327,3,PGRIAN317837338598,2017-08-23
2328,3,PGRIAN773257215213,2018-05-28
2329,3,PGRIAN303172002364,2017-11-15
2330,3,PGRIAN417790892997,2018-01-15
2331,3,PGRIAN033318632019,2018-03-16
2332,3,PGRIAN073631277015,2018-03-07
2333,3,PGRIAN895964129987,2017-12-29
2334,3,PGRIAN464819321716,2017-11-12
2335,3,PGRIAN934283182245,2018-06-24
2336,3,PGRIAN002420017795,2018-03-18
2337,3,PGRIAN024887375966,2018-05-28
2338,3,PGRIAN272490996489,2017-08-22
2339,3,PGRIAN777751392007,2017-08-22
2340,3,PGRIAN597914179821,2018-05-11
2341,3,PGRIAN255153879528,2018-06-01
2342,3,PGRIAN635831009439,2018-07-03
2343,3,PGRIAN697772906395,2018-07-07
2344,3,PGRIAN958796774392,2017-08-07
2345,3,PGRIAN698398469535,2018-07-11
2346,3,PGRIAN080781448501,2018-05-25
2347,3,PGRIAN885067393364,2018-06-22
2348,3,PGRIAN693868473800,2018-06-22
2349,3,PGRIAN842101084301,2018-06-22
2350,3,PGRIAN554100479864,2018-06-22
2351,3,PGRIAN978350227648,2018-05-28
2352,3,PGRIAN819134693231,2018-06-06
2353,3,PGRIAN920145417240,2018-06-08
2354,3,PGRIAN147994532731,2018-06-23
2355,3,PGRIAN777255396001,2018-06-30
2356,3,PGRIAN232766087535,2018-06-30
2357,3,PGRIAN079119708080,2018-07-05
2358,3,PGRIAN569037511346,2018-07-05
2359,3,PGRIAN736090561995,2018-07-07
2360,3,PGRIAN952320304803,2018-07-08
2361,3,PGRIAN229638864228,2018-07-13
2362,3,PGRIAN236597359432,2018-07-22
2363,3,PGRIAN558355390718,2018-07-24
2364,3,PGRIAN446494206009,2018-07-07
2365,3,PGRIAN306230295263,2018-07-11
2366,3,PGRIAN843962712619,2018-07-25
2367,3,PGRIAN197656630826,2018-07-27
2368,3,PGRIAN368124419667,2018-02-19
2369,3,PGRIAN533367192359,2017-07-07
2370,3,PGRIAN753156577897,2018-07-07
2371,3,PGRIAN944677257627,2017-09-08
2372,3,PGRIAN558747579547,2018-06-30
2373,3,PGRIAN814641944772,2018-05-17
2374,3,PGRIAN664186526534,2018-07-08
2375,3,PGRIAN282438266456,2018-07-03
2376,3,PGRIAN673582048307,2018-05-21
2377,3,PGRIAN219695443341,2018-06-25
2378,3,PGRIAN892305798613,2017-11-25
2379,3,PGRIAN294337251765,2018-02-19
2380,3,PGRIAN072860812577,2018-07-11
2381,3,PGRIAN157668183401,2018-06-26
2382,3,PGRIAN647919408969,2018-05-06
2383,3,PGRIAN052775112274,2017-11-15
2384,3,PGRIAN149449338536,2018-04-14
2385,3,PGRIAN078504799641,2018-08-11
2386,3,PGRIAN177867755107,2018-02-17
2387,3,PGRIAN687561802076,2018-05-02
2388,3,PGRIAN248129619765,2018-08-15
2389,3,PGRIAN348784589925,2017-11-30
2390,3,PGRIAN496387379968,2017-12-06
2391,3,PGRIAN615146874771,2018-04-28
2392,3,PGRIAN033324712384,2018-08-25
2393,3,PGRIAN323646780510,2018-08-24
2394,3,PGRIAN040093784241,2018-01-07
2395,3,PGRIAN755963449511,2018-09-18
2396,3,PGRIAN570184685917,2018-08-27
2397,3,PGRIAN563464936332,2018-07-30
2398,3,PGRIAN211432601119,2018-07-19
2399,3,PGRIAN532248065070,2018-07-21
2400,3,PGRIAN927404756211,2018-08-21
2401,3,PGRIAN669342827332,2018-07-21
2402,3,PGRIAN917367083007,2018-08-24
2403,3,PGRIAN957762869720,2018-08-21
2404,3,PGRIAN960511407784,2018-07-27
2405,3,PGRIAN768191482236,2018-07-31
2406,3,PGRIAN261083916238,2018-04-06
2407,3,PGRIAN820268429098,2018-08-30
2408,3,PGRIAN178091656232,2018-08-09
2409,3,PGRIAN894994388118,2018-08-07
2410,3,PGRIAN210650580625,2017-12-29
2411,3,PGRIAN723775817214,2018-08-07
2412,3,PGRIAN731822782993,2018-04-26
2413,3,PGRIAN196607727004,2018-06-26
2414,3,PGRIAN421674562972,2017-10-26
2415,3,PGRIAN266891673621,2018-03-28
2416,3,PGRIAN239832846492,2018-04-04
2417,3,PGRIAN700020197624,2017-05-02
2418,3,PGRIAN357605183714,2018-03-30
2419,3,PGRIAN665347671634,2018-06-30
2420,3,PGRIAN160956254149,2018-04-01
2421,3,PGRIAN414710133452,2018-07-10
2422,3,PGRIAN208593645845,2018-08-14
2423,3,PGRIAN347716984199,2018-08-11
2424,3,PGRIAN924832914030,2018-09-11
2425,3,PGRIAN042403110896,2018-08-13
2426,3,PGRIAN855282888327,2018-05-27
2427,3,PGRIAN047635351131,2018-08-10
2428,3,PGRIAN067075420229,2018-08-15
2429,3,PGRIAN331491980167,2017-10-13
2430,3,PGRIAN367782972786,2018-08-26
2431,3,PGRIAN153227728592,2017-12-15
2432,3,PGRIAN268726859738,2018-08-16
2433,3,PGRIAN327651487279,2018-05-22
2434,3,PGRIAN096818615696,2018-09-10
2435,3,PGRIAN241748886501,2018-04-23
2436,3,PGRIAN517561154299,2018-05-16
2437,3,PGRIAN758447147582,2018-05-26
2438,3,PGRIAN923200439785,2018-08-23
2439,3,PGRIAN374591536631,2018-08-22
2440,3,PGRIAN449065348604,2018-05-28
2441,3,PGRIAN122230998413,2018-03-07
2442,3,PGRIAN989000952215,2018-04-30
2443,3,PGRIAN911066429314,2018-06-30
2444,3,PGRIAN056956579462,2018-08-01
2445,3,PGRIAN766016557243,2017-12-23
2446,3,PGRIAN829723172675,2017-11-26
2447,3,PGRIAN981032437023,2018-05-09
2448,3,PGRIAN653951386827,2018-08-12
2449,3,PGRIAN468484504278,2018-05-28
2450,3,PGRIAN509644124756,2018-08-21
2451,3,PGRIAN174871272647,2081-01-22
2452,3,PGRIAN487320303068,2018-09-28
2453,3,PGRIAN673248121533,2018-02-08
2454,3,PGRIAN501310216347,2018-04-06
2455,3,PGRIAN306698602544,2018-03-25
2456,3,PGRIAN629269524329,2018-10-03
2457,3,PGRIAN578039947940,2018-10-13
2458,3,PGRIAN850213964852,2018-07-28
2459,3,PGRIAN610620845991,2018-09-17
2460,3,PGRIAN627778559941,2018-09-06
2461,3,PGRIAN810137077300,2018-06-27
2462,3,PGRIAN610038115333,2018-01-27
2463,3,PGRIAN550744441792,2018-08-09
2464,3,PGRIAN443636448484,2018-09-05
2465,3,PGRIAN872558157156,2018-09-15
2466,3,PGRIAN512382857460,2018-09-11
2467,3,PGRIAN051289213793,2018-09-07
2468,3,PGRIAN666712234602,2018-03-22
2469,3,PGRIAN449075953590,2018-10-04
2470,3,PGRIAN973177644872,2018-10-09
2471,3,PGRIAN700275476970,2018-08-22
2472,3,PGRIAN786157836578,2018-10-13
2473,3,PGRIAN778265939374,2018-03-09
2474,3,PGRIAN148524310957,2018-09-09
2475,3,PGRIAN112808197926,2018-06-24
2476,3,PGRIAN017991056326,2017-12-22
2477,3,PGRIAN133519026145,2018-03-27
2478,3,PGRIAN402534178259,2018-09-02
2479,3,PGRIAN203854481995,2018-08-19
2480,3,PGRIAN870382007148,2018-08-16
2481,3,PGRIAN022383211011,2018-10-19
2482,3,PGRIAN950092156756,2018-09-25
2483,3,PGRIAN862317162293,2018-09-27
2484,3,PGRIAN388262873574,2018-10-17
2485,3,PGRIAN039625255202,2018-01-16
2486,3,PGRIAN255663706671,2018-10-01
2487,3,PGRIAN919496070270,2018-01-19
2488,3,PGRIAN176983529181,2018-09-08
2489,3,PGRIAN352274175429,2018-10-23
2490,3,PGRIAN127569199038,2018-10-26
2491,3,PGRIAN554621159111,2018-10-26
2492,3,PGRIAN370217830556,2018-11-01
2493,3,PGRIAN323460261883,2018-05-21
2494,3,PGRIAN372157311480,2018-08-04
2495,3,PGRIAN818539139758,2018-02-11
2496,3,PGRIAN061471792438,2018-09-26
2497,3,PGRIAN111936662857,2018-07-02
2498,3,PGRIAN839580932269,2018-09-11
2499,3,PGRIAN965359954728,2018-10-11
2500,3,PGRIAN241608809060,2018-10-11
2501,3,PGRIAN916815594925,2018-10-13
2502,3,PGRIAN938290747435,2018-11-04
2503,3,PGRIAN377363248126,2018-09-11
2504,3,PGRIAN128041536255,2018-10-31
2505,3,PGRIAN298160443644,2018-11-08
2506,3,PGRIAN559669957676,2018-09-15
2507,3,PGRIAN521304238051,2018-06-27
2508,3,PGRIAN574379265156,2018-11-07
2509,3,PGRIAN530161299659,2018-05-07
2510,3,PGRIAN405804081630,2018-07-08
2511,3,PGRIAN903438927570,2018-01-17
2512,3,PGRIAN427890141869,2018-08-04
2513,3,PGRIAN089176183080,2018-08-21
2514,3,PGRIAN265795665283,2018-10-24
2515,3,PGRIAN818634480911,2018-11-18
2516,3,PGRIAN527718801178,2018-11-19
2517,3,PGRIAN725003214405,2018-10-19
2518,3,PGRIAN452944234830,2018-10-26
2519,3,PGRIAN937014081927,2018-08-24
2520,3,PGRIAN085728313817,2018-03-09
2521,3,PGRIAN606218379635,2018-06-25
2522,3,PGRIAN658650852860,2018-05-11
2523,3,PGRIAN495919494693,2017-12-24
2524,3,PGRIAN524781851485,2018-07-22
2525,3,PGRIAN159972253768,2018-06-06
2526,3,PGRIAN142264810872,2018-05-05
2527,3,PGRIAN405925826993,2018-01-27
2528,3,PGRIAN885463693325,2018-09-18
2529,3,PGRIAN245804529602,2018-09-02
2530,3,PGRIAN318974027804,2018-11-25
2531,3,PGRIAN339513622618,2018-05-09
2532,3,PGRIAN043257040056,2018-11-27
2533,3,PGRIAN270432597706,2018-12-07
2534,3,PGRIAN811121550192,2018-12-04
2535,3,PGRIAN224104970156,2018-10-16
2536,3,PGRIAN155782718196,2018-10-17
2537,3,PGRIAN305702290783,2018-08-22
2538,3,PGRIAN218534481559,2018-09-25
2539,3,PGRIAN557146617100,2018-11-01
2540,3,PGRIAN145546141063,2018-09-08
2541,3,PGRIAN304759613453,2018-08-06
2542,3,PGRIAN891771003630,2018-08-02
2543,3,PGRIAN496830625030,2018-08-07
2544,3,PGRIAN181703902910,2018-03-25
2545,3,PGRIAN188837547756,2017-12-13
2546,3,PGRIAN634692471935,2018-11-10
2547,3,PGRIAN758692279857,2018-11-12
2548,3,PGRIAN662690519377,2018-11-30
2549,3,PGRIAN702179504391,2018-11-29
2550,3,PGRIAN097766167987,2018-10-25
2551,3,PGRIAN336036933556,2018-07-28
2552,3,PGRIAN758798122747,2017-12-16
2553,3,PGRIAN594511033056,2018-04-24
2554,3,PGRIAN122747896175,2018-09-27
2555,3,PGRIAN386123379060,2018-02-26
2556,3,PGRIAN790057493556,2018-03-02
2557,3,PGRIAN650559461701,2018-10-11
2558,3,PGRIAN657353638215,2018-12-04
2559,3,PGRIAN869898203950,2018-12-08
2560,3,PGRIAN350386129820,2018-01-27
2561,3,PGRIAN025979164053,2018-12-10
2562,3,PGRIAN546421305931,2018-12-07
2563,3,PGRIAN430316705013,2018-10-25
2564,3,PGRIAN420183622201,2018-11-15
2565,3,PGRIAN404444751393,2018-10-10
2566,3,PGRIAN755026033879,2018-11-02
2567,3,PGRIAN506314332714,2018-07-18
