id_child,id_puskes,no_regis,created_at
1,1,TMBKRJ809289734531,2015-07-20
2,1,TMBKRJ310441490819,2015-01-15
3,1,TMBKRJ732008638487,2015-10-28
4,1,TMBKRJ898240646567,2015-08-11
5,1,TMBKRJ770915379064,2015-08-02
6,1,TMBKRJ147379187211,2015-09-21
7,1,TMBKRJ301294552870,2015-03-01
8,1,TMBKRJ428399046220,2015-09-16
9,1,TMBKRJ472032329197,2015-11-11
10,1,TMBKRJ155260044121,2015-07-23
11,1,TMBKRJ439649383336,2015-09-15
12,1,TMBKRJ090105350788,2015-09-20
13,1,TMBKRJ568037206773,2015-11-16
14,1,TMBKRJ284843280007,2015-09-14
15,1,TMBKRJ653951727439,2015-10-11
16,1,TMBKRJ500485503587,2015-10-12
17,1,TMBKRJ591119803686,2015-02-02
18,1,TMBKRJ269309716600,2015-11-06
19,1,TMBKRJ844396902587,2015-01-17
20,1,TMBKRJ481297973790,2015-10-12
21,1,TMBKRJ144929408659,2015-10-03
22,1,TMBKRJ469166537928,2016-01-02
23,1,TMBKRJ504832387069,2015-07-01
24,1,TMBKRJ246025076430,2015-11-04
25,1,TMBKRJ997137602881,2015-03-16
26,1,TMBKRJ934649867294,2015-09-28
27,1,TMBKRJ042357536875,2016-05-01
28,1,TMBKRJ330897937683,2015-03-11
29,1,TMBKRJ880061976511,2015-12-23
30,1,TMBKRJ656553944608,2015-10-11
31,1,TMBKRJ221571946049,2015-05-17
32,1,TMBKRJ923035481704,2015-11-03
33,1,TMBKRJ784751506824,2015-09-06
34,1,TMBKRJ187157868036,2015-09-20
35,1,TMBKRJ608660579401,2015-10-12
36,1,TMBKRJ075374053647,2015-10-10
37,1,TMBKRJ554807594289,2015-12-22
38,1,TMBKRJ346346587470,2016-01-18
39,1,TMBKRJ138490015076,2015-09-30
40,1,TMBKRJ848411405344,2016-12-30
41,1,TMBKRJ544357184205,2016-01-18
42,1,TMBKRJ601280776499,2015-12-26
43,1,TMBKRJ665436983609,2015-12-21
44,1,TMBKRJ204733900798,2015-12-26
45,1,TMBKRJ013381707151,2015-12-19
46,1,TMBKRJ149158281673,2016-04-01
47,1,TMBKRJ093728412090,2016-03-26
48,1,TMBKRJ071021296760,2015-02-08
49,1,TMBKRJ635281422063,2015-03-20
50,1,TMBKRJ722211786090,2015-10-26
51,1,TMBKRJ966441914142,2015-02-10
52,1,TMBKRJ580559088055,2015-03-12
53,1,TMBKRJ844501418225,2015-07-07
54,1,TMBKRJ003582023156,2016-01-05
55,1,TMBKRJ511977401319,2015-04-15
56,1,TMBKRJ645608376791,2014-07-15
57,1,TMBKRJ198583184743,2015-02-17
58,1,TMBKRJ588585835239,2015-07-04
59,1,TMBKRJ186747043135,2015-03-24
60,1,TMBKRJ739929726339,2015-03-12
61,1,TMBKRJ049593748362,2015-04-14
62,1,TMBKRJ424137693278,2015-02-04
63,1,TMBKRJ760312878429,2015-07-26
64,1,TMBKRJ329398501713,2015-12-21
65,1,TMBKRJ846426161401,2014-11-09
66,1,TMBKRJ608359810092,2015-02-14
67,1,TMBKRJ648825800155,2015-10-07
68,1,TMBKRJ863813309822,2015-06-12
69,1,TMBKRJ157471226288,2015-11-06
70,1,TMBKRJ822542226823,2015-12-12
71,1,TMBKRJ279575919377,2015-10-07
72,1,TMBKRJ716481952640,2015-10-15
73,1,TMBKRJ473638275654,2015-09-29
74,1,TMBKRJ584354905089,2015-05-11
75,1,TMBKRJ397175639798,2015-10-09
76,1,TMBKRJ083369972870,2015-09-19
77,1,TMBKRJ472966838500,2015-12-24
78,1,TMBKRJ417008380120,2015-05-01
79,1,TMBKRJ180722094410,2015-11-06
80,1,TMBKRJ245124986121,2016-01-18
81,1,TMBKRJ585383605508,2015-10-30
82,1,TMBKRJ550617155926,2015-09-30
83,1,TMBKRJ105539083992,2015-08-10
84,1,TMBKRJ291985929773,2016-02-19
85,1,TMBKRJ902260503429,2016-02-15
86,1,TMBKRJ956256793023,2015-11-06
87,1,TMBKRJ203939584053,2016-01-18
88,1,TMBKRJ134154518769,2015-10-29
89,1,TMBKRJ133896329397,2015-10-28
90,1,TMBKRJ571153946393,2015-12-21
91,1,TMBKRJ901902460962,2015-12-21
92,1,TMBKRJ016652446208,2015-11-08
93,1,TMBKRJ687198269775,2015-12-09
94,1,TMBKRJ508860638362,2016-01-02
95,1,TMBKRJ792379829895,2014-08-08
96,1,TMBKRJ284928713714,2015-04-24
97,1,TMBKRJ177152032828,2015-11-06
98,1,TMBKRJ311875078571,2015-12-14
99,1,TMBKRJ060149785826,2016-01-07
100,1,TMBKRJ486272713100,2015-09-21
101,1,TMBKRJ018197420063,2015-12-29
102,1,TMBKRJ720349751539,2015-11-23
103,1,TMBKRJ045274941704,2015-10-12
104,1,TMBKRJ416745963368,2016-01-22
105,1,TMBKRJ587013952605,2015-11-16
106,1,TMBKRJ759159681400,2015-10-11
107,1,TMBKRJ616135267096,2016-01-28
108,1,TMBKRJ225469717983,2016-01-29
109,1,TMBKRJ439475229501,2015-11-04
110,1,TMBKRJ639824563971,2015-11-08
111,1,TMBKRJ933888344429,2015-11-06
112,1,TMBKRJ403772663220,2015-11-16
113,1,TMBKRJ614930664528,2015-11-06
114,1,TMBKRJ123214324893,2015-10-28
115,1,TMBKRJ408657310248,2015-12-05
116,1,TMBKRJ612417085758,2016-03-19
117,1,TMBKRJ504690967737,2015-06-29
118,1,TMBKRJ837424035593,2015-05-22
119,1,TMBKRJ944334606521,2016-01-22
120,1,TMBKRJ377873139936,2015-10-19
121,1,TMBKRJ904009468145,2015-11-08
122,1,TMBKRJ568190317324,2015-07-04
123,1,TMBKRJ744707148928,2016-12-09
124,1,TMBKRJ496338949618,2015-11-20
125,1,TMBKRJ744541699497,2016-03-19
126,1,TMBKRJ695846733335,2016-02-15
127,1,TMBKRJ436238163106,2016-02-15
128,1,TMBKRJ979832158753,2016-03-02
129,1,TMBKRJ523872035760,2015-05-10
130,1,TMBKRJ624166437384,2016-03-16
131,1,TMBKRJ456394251703,2016-01-18
132,1,TMBKRJ496120893984,2015-10-30
133,1,TMBKRJ002639714305,2015-04-29
134,1,TMBKRJ326451362282,2015-10-10
135,1,TMBKRJ192672109951,2015-10-31
136,1,TMBKRJ436192979565,2015-11-08
137,1,TMBKRJ720587532488,2015-01-21
138,1,TMBKRJ174625837415,2015-07-21
139,1,TMBKRJ049086141763,2016-07-21
140,1,TMBKRJ857694925168,2015-08-15
141,1,TMBKRJ808604596071,2015-10-24
142,1,TMBKRJ816528339677,2015-11-05
143,1,TMBKRJ571872396972,2015-09-28
144,1,TMBKRJ015275410918,2016-02-15
145,1,TMBKRJ602080614554,2016-02-15
146,1,TMBKRJ127601654953,2016-02-27
147,1,TMBKRJ782142629001,2015-12-09
148,1,TMBKRJ046602937034,2015-10-20
149,1,TMBKRJ982993638050,2015-05-15
150,1,TMBKRJ522585578218,2016-03-15
151,1,TMBKRJ437440077565,2015-12-03
152,1,TMBKRJ592716105813,2016-02-19
153,1,TMBKRJ042509400452,2015-10-11
154,1,TMBKRJ056597895784,2015-04-23
155,1,TMBKRJ076372519782,2016-03-15
156,1,TMBKRJ362605048482,2015-12-19
157,1,TMBKRJ214528283351,2015-12-09
158,1,TMBKRJ186822456412,2016-02-12
159,1,TMBKRJ655128146758,2015-03-15
160,1,TMBKRJ796785939193,2015-06-27
161,1,TMBKRJ248721921222,2016-02-21
162,1,TMBKRJ512858710157,2016-01-29
163,1,TMBKRJ857048980520,2016-02-11
164,1,TMBKRJ432775175944,2016-02-15
165,1,TMBKRJ206286643209,2016-04-02
166,1,TMBKRJ244610500192,2016-03-20
167,1,TMBKRJ123078045457,2016-03-26
168,1,TMBKRJ892159902759,2015-09-01
169,1,TMBKRJ375289348396,2015-06-10
170,1,TMBKRJ211076345948,2015-03-11
171,1,TMBKRJ933930044348,2015-05-10
172,1,TMBKRJ890753915445,2015-02-03
173,1,TMBKRJ621863145753,2015-02-23
174,1,TMBKRJ009990379848,2015-12-01
175,1,TMBKRJ617646126776,2015-09-16
176,1,TMBKRJ555061695254,2015-07-01
177,1,TMBKRJ200376695077,2015-05-02
178,1,TMBKRJ974929452474,2015-05-08
179,1,TMBKRJ258700749619,2015-05-04
180,1,TMBKRJ239576320152,2015-03-14
181,1,TMBKRJ355944191883,2015-02-05
182,1,TMBKRJ245802451495,2015-06-12
183,1,TMBKRJ465238896455,2014-10-15
184,1,TMBKRJ281354858052,2015-04-04
185,1,TMBKRJ824006889465,2016-01-18
186,1,TMBKRJ785244647522,2015-06-30
187,1,TMBKRJ330672706596,2015-09-18
188,1,TMBKRJ457471403715,2015-06-29
189,1,TMBKRJ384811736684,2015-05-15
190,1,TMBKRJ697903760223,2016-02-08
191,1,TMBKRJ933105702875,2015-05-19
192,1,TMBKRJ063692740070,2015-11-13
193,1,TMBKRJ935900709065,2016-06-14
194,1,TMBKRJ767999144993,2015-05-28
195,1,TMBKRJ654728518812,2015-05-19
196,1,TMBKRJ073469230509,2016-04-26
197,1,TMBKRJ643980317958,2015-04-23
198,1,TMBKRJ879434007672,2016-02-08
199,1,TMBKRJ144675574566,2015-10-11
200,1,TMBKRJ473306624604,2015-12-22
201,1,TMBKRJ815625619656,2015-09-15
202,1,TMBKRJ336160969700,2015-12-03
203,1,TMBKRJ894990478618,2016-10-31
204,1,TMBKRJ510348612521,2016-07-17
205,1,TMBKRJ678767607076,2015-03-08
206,1,TMBKRJ842689372358,2015-04-20
207,1,TMBKRJ895629183483,2016-02-19
208,1,TMBKRJ542574165630,2016-01-17
209,1,TMBKRJ411852944404,2015-05-13
210,1,TMBKRJ090949559447,2016-01-02
211,1,TMBKRJ822416543364,2016-03-30
212,1,TMBKRJ290677835302,2016-03-26
213,1,TMBKRJ058970458173,2016-05-15
214,1,TMBKRJ896812077177,2015-06-29
215,1,TMBKRJ443358292572,2015-08-12
216,1,TMBKRJ265983678264,2016-06-04
217,1,TMBKRJ494058696849,2015-12-01
218,1,TMBKRJ645601754738,2016-03-19
219,1,TMBKRJ010064245609,2015-07-26
220,1,TMBKRJ631880109636,2016-01-22
221,1,TMBKRJ574776517380,2015-02-28
222,1,TMBKRJ442720059407,2015-12-09
223,1,TMBKRJ842950402499,2015-11-19
224,1,TMBKRJ659881539653,2015-12-23
225,1,TMBKRJ085079821201,2015-12-29
226,1,TMBKRJ612220783235,2016-01-02
227,1,TMBKRJ124029665269,2016-07-08
228,1,TMBKRJ357216649928,2016-05-17
229,1,TMBKRJ546810276547,2016-04-05
230,1,TMBKRJ754285166059,2016-05-13
231,1,TMBKRJ573601506621,2016-05-09
232,1,TMBKRJ960155048822,2016-04-05
233,1,TMBKRJ025257052522,2015-07-01
234,1,TMBKRJ372734931357,2015-07-24
235,1,TMBKRJ590886580809,2015-09-15
236,1,TMBKRJ278554520700,2015-06-29
237,1,TMBKRJ133719390842,2016-03-27
238,1,TMBKRJ314493874684,2016-02-06
239,1,TMBKRJ180426786855,2015-09-11
240,1,TMBKRJ912572157735,2016-06-19
241,1,TMBKRJ862379694684,2106-06-21
242,1,TMBKRJ041602763880,2107-06-21
243,1,TMBKRJ922940918572,2016-07-03
244,1,TMBKRJ595602376898,2016-03-26
245,1,TMBKRJ060424866546,2016-06-12
246,1,TMBKRJ085738676895,2016-10-12
247,1,TMBKRJ297744569436,2016-07-20
248,1,TMBKRJ980525585779,2016-04-23
249,1,TMBKRJ944377932501,2016-05-07
250,1,TMBKRJ770533943454,2015-12-28
251,1,TMBKRJ943408594152,2016-05-03
252,1,TMBKRJ191323549988,2013-10-03
253,1,TMBKRJ135654767666,2016-06-05
254,1,TMBKRJ392046416587,2013-05-30
255,1,TMBKRJ820883572026,2014-05-30
256,1,TMBKRJ963093839937,2016-02-01
257,1,TMBKRJ907795585543,2015-12-12
258,1,TMBKRJ030268173098,2106-03-02
259,1,TMBKRJ096747685870,2016-04-08
260,1,TMBKRJ231702587032,2016-02-17
261,1,TMBKRJ539399062282,2015-09-19
262,1,TMBKRJ285142512988,2016-03-20
263,1,TMBKRJ805661038115,2016-05-31
264,1,TMBKRJ887728659150,2016-02-21
265,1,TMBKRJ193209563270,2016-05-27
266,1,TMBKRJ261313738880,2016-04-02
267,1,TMBKRJ976905245335,2016-03-02
268,1,TMBKRJ714336164040,2016-01-17
269,1,TMBKRJ198730089474,2016-05-07
270,1,TMBKRJ123834751333,2016-01-07
271,1,TMBKRJ063631192764,2016-04-27
272,1,TMBKRJ122401284117,2016-05-07
273,1,TMBKRJ025118755936,2016-04-18
274,1,TMBKRJ106848144530,2015-02-02
275,1,TMBKRJ672061386050,2016-03-16
276,1,TMBKRJ498846792445,2016-02-10
277,1,TMBKRJ345336531528,2016-05-03
278,1,TMBKRJ711787126623,2016-06-02
279,1,TMBKRJ641895662390,2016-02-26
280,1,TMBKRJ514690051038,2016-06-05
281,1,TMBKRJ516351843353,2016-05-03
282,1,TMBKRJ430245468758,2016-06-01
283,1,TMBKRJ729491780225,2015-01-13
284,1,TMBKRJ674821587894,2016-06-17
285,1,TMBKRJ976109910547,2016-06-22
286,1,TMBKRJ294770311445,2016-03-04
287,1,TMBKRJ229742932357,2016-05-26
288,1,TMBKRJ916634991932,2015-07-01
289,1,TMBKRJ179590385017,2015-02-05
290,1,TMBKRJ453512738273,2016-06-26
291,1,TMBKRJ638757415137,2016-07-07
292,1,TMBKRJ200123557512,2016-06-20
293,1,TMBKRJ123111009534,2016-08-10
294,1,TMBKRJ181249191919,2015-10-12
295,1,TMBKRJ975030169084,2016-05-31
296,1,TMBKRJ209999632370,2016-02-21
297,1,TMBKRJ379784798618,2016-04-23
298,1,TMBKRJ637821366980,2016-04-16
299,1,TMBKRJ324160118716,2016-04-23
300,1,TMBKRJ796326772271,2015-12-24
301,1,TMBKRJ248560411893,2015-07-30
302,1,TMBKRJ716641879346,2015-12-03
303,1,TMBKRJ719188016033,2015-10-24
304,1,TMBKRJ442455035024,2016-06-26
305,1,TMBKRJ657439451282,2016-07-29
306,1,TMBKRJ927711795688,2016-05-10
307,1,TMBKRJ861059172958,2016-06-21
308,1,TMBKRJ539811320979,2016-05-22
309,1,TMBKRJ871654852142,2016-04-06
310,1,TMBKRJ891641916323,2016-04-05
311,1,TMBKRJ382039728391,2016-03-26
312,1,TMBKRJ150036275970,2016-06-12
313,1,TMBKRJ747871736120,2016-05-17
314,1,TMBKRJ380452492558,2015-08-27
315,1,TMBKRJ366526157035,2016-06-20
316,1,TMBKRJ859720283891,2016-06-22
317,1,TMBKRJ750268689875,2016-06-22
318,1,TMBKRJ407981365457,2016-06-18
319,1,TMBKRJ011293900857,2016-07-15
320,1,TMBKRJ013733755927,2016-08-10
321,1,TMBKRJ414332240041,2016-08-09
322,1,TMBKRJ568640940738,2016-03-20
323,1,TMBKRJ593306287558,2016-04-23
324,1,TMBKRJ773413444273,2015-12-09
325,1,TMBKRJ678778043118,2016-08-06
326,1,TMBKRJ122568211891,2016-09-01
327,1,TMBKRJ325626411222,2015-10-30
328,1,TMBKRJ299997371730,2016-07-06
329,1,TMBKRJ869972060113,2015-12-26
330,1,TMBKRJ050892660105,2016-09-14
331,1,TMBKRJ567558845340,2016-09-14
332,1,TMBKRJ577406188602,2015-10-28
333,1,TMBKRJ815177135267,2015-10-15
334,1,TMBKRJ106250077373,2016-08-01
335,1,TMBKRJ111859270377,2016-08-01
336,1,TMBKRJ808340493550,2016-08-09
337,1,TMBKRJ368615165355,2015-10-09
338,1,TMBKRJ582601633897,2016-10-07
339,1,TMBKRJ643643807361,2016-04-23
340,1,TMBKRJ928746365702,2016-08-08
341,1,TMBKRJ766352281076,2015-12-12
342,1,TMBKRJ187989921221,2016-02-14
343,1,TMBKRJ362983315735,2016-01-08
344,1,TMBKRJ547109648921,2016-06-14
345,1,TMBKRJ761451070862,2016-08-12
346,1,TMBKRJ185269377471,2016-06-26
347,1,TMBKRJ118087773364,2016-08-17
348,1,TMBKRJ306624542161,2016-10-08
349,1,TMBKRJ865551552087,2016-07-20
350,1,TMBKRJ816048877166,2016-08-04
351,1,TMBKRJ025280438911,2016-08-20
352,1,TMBKRJ555513537069,2015-04-14
353,1,TMBKRJ648474824783,2015-08-17
354,1,TMBKRJ065709057523,2016-01-23
355,1,TMBKRJ157235304008,2016-06-22
356,1,TMBKRJ891890978722,2016-07-29
357,1,TMBKRJ810977488657,2016-08-10
358,1,TMBKRJ932717580685,2016-01-17
359,1,TMBKRJ636360590485,2016-10-20
360,1,TMBKRJ157032032592,2016-07-07
361,1,TMBKRJ363075945790,2016-09-08
362,1,TMBKRJ429557778524,2016-05-03
363,1,TMBKRJ311592912085,2016-05-26
364,1,TMBKRJ198870559734,2016-09-02
365,1,TMBKRJ885592060638,2015-08-07
366,1,TMBKRJ529820166576,2016-10-26
367,1,TMBKRJ240663561024,2016-04-26
368,1,TMBKRJ521554506343,2016-11-28
369,1,TMBKRJ333582942612,2016-11-21
370,1,TMBKRJ691363463683,2016-05-03
371,1,TMBKRJ819590975284,2016-11-30
372,1,TMBKRJ767253724584,2016-09-14
373,1,TMBKRJ645170658239,2016-10-03
374,1,TMBKRJ566934692220,2016-08-26
375,1,TMBKRJ460069972142,2016-02-21
376,1,TMBKRJ635853860482,2016-10-03
377,1,TMBKRJ481431837614,2016-05-10
378,1,TMBKRJ221215609713,2016-04-05
379,1,TMBKRJ489831489764,2016-07-15
380,1,TMBKRJ540788663173,2016-06-22
381,1,TMBKRJ821351742726,2016-06-03
382,1,TMBKRJ539012854715,2016-09-24
383,1,TMBKRJ690576724296,2016-09-07
384,1,TMBKRJ686826268225,2016-07-27
385,1,TMBKRJ670404340513,2016-07-08
386,1,TMBKRJ284113072857,2016-04-05
387,1,TMBKRJ031726556388,2016-06-03
388,1,TMBKRJ893462977227,2016-09-06
389,1,TMBKRJ573582539788,2016-09-07
390,1,TMBKRJ665745005070,2016-08-30
391,1,TMBKRJ681387694652,2016-11-15
392,1,TMBKRJ278616090461,2016-12-06
393,1,TMBKRJ898997180737,2015-12-09
394,1,TMBKRJ720454811437,2016-12-05
395,1,TMBKRJ694517586571,2016-07-26
396,1,TMBKRJ455345762691,2016-11-15
397,1,TMBKRJ372573678373,2015-10-14
398,1,TMBKRJ193536147319,2015-09-23
399,1,TMBKRJ816099349492,2015-02-11
400,1,TMBKRJ870548638577,2015-01-08
401,1,TMBKRJ654659215826,2015-03-02
402,1,TMBKRJ844082020445,2015-03-10
403,1,TMBKRJ294983368963,2015-09-08
404,1,TMBKRJ656760351404,2015-12-01
405,1,TMBKRJ715940765613,2015-04-16
406,1,TMBKRJ565593393665,2015-06-24
407,1,TMBKRJ054967304159,2015-08-30
408,1,TMBKRJ469656166245,2015-09-27
409,1,TMBKRJ548156817417,2015-03-17
410,1,TMBKRJ838062094964,2015-03-24
411,1,TMBKRJ376502271753,2015-08-30
412,1,TMBKRJ088726872722,2015-08-30
413,1,TMBKRJ495423176389,2015-03-11
414,1,TMBKRJ204512211532,2015-04-01
415,1,TMBKRJ922955796372,2015-07-18
416,1,TMBKRJ354516228141,2015-04-01
417,1,TMBKRJ801240458205,2015-11-21
418,1,TMBKRJ249147041426,2015-10-29
419,1,TMBKRJ995872947538,2015-10-06
420,1,TMBKRJ257308052243,2015-09-03
421,1,TMBKRJ470798769645,2015-11-10
422,1,TMBKRJ333850452491,2015-11-19
423,1,TMBKRJ118766453287,2015-11-19
424,1,TMBKRJ702258877267,2015-04-02
425,1,TMBKRJ393854682275,2015-04-16
426,1,TMBKRJ238111529521,2015-12-14
427,1,TMBKRJ974623273085,2015-08-04
428,1,TMBKRJ672742779562,2015-10-09
429,1,TMBKRJ352081403687,2015-10-22
430,1,TMBKRJ687510234289,2014-11-11
431,1,TMBKRJ858843625481,2015-04-02
432,1,TMBKRJ796444392812,2015-08-19
433,1,TMBKRJ631912147811,2015-04-13
434,1,TMBKRJ959746892602,2013-03-09
435,1,TMBKRJ776973117051,2015-10-28
436,1,TMBKRJ631134594931,2015-08-09
437,1,TMBKRJ802567069516,2015-02-06
438,1,TMBKRJ030366933907,2015-10-06
439,1,TMBKRJ620136730786,2015-08-24
440,1,TMBKRJ159365979286,2015-11-11
441,1,TMBKRJ819993802562,2015-09-19
442,1,TMBKRJ682014797346,2015-08-19
443,1,TMBKRJ868200568691,2015-12-07
444,1,TMBKRJ280203822542,2015-11-10
445,1,TMBKRJ567397671330,2015-12-01
446,1,TMBKRJ495127227616,2015-09-13
447,1,TMBKRJ809888766777,2015-02-18
448,1,TMBKRJ541479521477,2015-09-30
449,1,TMBKRJ980498282449,2015-05-08
450,1,TMBKRJ905984006027,2015-03-25
451,1,TMBKRJ302180726002,2015-11-19
452,1,TMBKRJ468033777657,2015-10-04
453,1,TMBKRJ399569053310,2015-10-10
454,1,TMBKRJ703760302345,2015-05-07
455,1,TMBKRJ318686002727,2015-09-27
456,1,TMBKRJ643708149747,2015-09-23
457,1,TMBKRJ682031933233,2015-11-11
458,1,TMBKRJ021526160511,2015-08-24
459,1,TMBKRJ396710836049,2015-05-05
460,1,TMBKRJ974994337376,2015-04-09
461,1,TMBKRJ493964748859,2015-10-08
462,1,TMBKRJ161592895501,2015-04-21
463,1,TMBKRJ231322269337,2015-11-02
464,1,TMBKRJ061588155706,2015-11-21
465,1,TMBKRJ041328602472,2015-10-03
466,1,TMBKRJ277514933286,2015-08-09
467,1,TMBKRJ522793001849,2015-10-28
468,1,TMBKRJ518783337245,2016-01-01
469,1,TMBKRJ068911088741,2015-09-23
470,1,TMBKRJ623347676404,2015-09-21
471,1,TMBKRJ331018364489,2015-12-23
472,1,TMBKRJ522516826311,2016-01-17
473,1,TMBKRJ456159794090,2016-01-03
474,1,TMBKRJ433626240392,2015-11-21
475,1,TMBKRJ699747572225,2016-02-21
476,1,TMBKRJ735915515307,2014-12-14
477,1,TMBKRJ072789348023,2015-09-21
478,1,TMBKRJ091133516308,2016-03-25
479,1,TMBKRJ290708772390,2016-01-01
480,1,TMBKRJ322769656751,2016-01-04
481,1,TMBKRJ809938674412,2016-01-06
482,1,TMBKRJ226216004454,2016-01-01
483,1,TMBKRJ631833515994,2015-11-07
484,1,TMBKRJ040488857490,2016-01-16
485,1,TMBKRJ390857778973,2016-01-21
486,1,TMBKRJ403992560515,2016-02-04
487,1,TMBKRJ007628142917,2016-02-17
488,1,TMBKRJ229277008706,2016-02-17
489,1,TMBKRJ803167094250,2015-02-11
490,1,TMBKRJ112014845836,2016-03-22
491,1,TMBKRJ972458838058,2016-03-23
492,1,TMBKRJ488133187950,2016-04-14
493,1,TMBKRJ398489166251,2015-05-01
494,1,TMBKRJ585643369650,2015-05-19
495,1,TMBKRJ356708703073,2016-01-16
496,1,TMBKRJ790213285864,2016-01-21
497,1,TMBKRJ234241988920,2015-11-11
498,1,TMBKRJ414462744122,2015-09-10
499,1,TMBKRJ233849869152,2016-03-26
500,1,TMBKRJ058099991494,2016-03-24
501,1,TMBKRJ709275734285,2015-12-24
502,1,TMBKRJ019459708690,2016-02-19
503,1,TMBKRJ118699027915,2015-07-27
504,1,TMBKRJ549127528150,2015-04-22
505,1,TMBKRJ151552245636,2016-02-15
506,1,TMBKRJ899507160552,2015-06-04
507,1,TMBKRJ364568216827,2015-10-30
508,1,TMBKRJ262831121093,2015-12-03
509,1,TMBKRJ764915855428,2015-11-08
510,1,TMBKRJ305215218430,2015-06-04
511,1,TMBKRJ919227026825,2016-02-15
512,1,TMBKRJ272957249826,2016-01-12
513,1,TMBKRJ876499632584,2016-02-06
514,1,TMBKRJ772162354603,2015-09-27
515,1,TMBKRJ925876726112,2015-05-10
516,1,TMBKRJ156484118074,2015-05-07
517,1,TMBKRJ600841127124,2015-10-09
518,1,TMBKRJ831264329684,2015-03-18
519,1,TMBKRJ817753119855,2015-03-27
520,1,TMBKRJ398761263874,2015-04-21
521,1,TMBKRJ112037845078,2015-09-27
522,1,TMBKRJ308204327273,2015-03-24
523,1,TMBKRJ984498632142,2015-04-01
524,1,TMBKRJ799218620654,2015-10-11
525,1,TMBKRJ155282103697,2015-11-25
526,1,TMBKRJ238457532873,2015-11-14
527,1,TMBKRJ175829114797,2015-12-01
528,1,TMBKRJ683308284298,2015-08-30
529,1,TMBKRJ261175565154,2015-10-29
530,1,TMBKRJ255460903151,2016-01-03
531,1,TMBKRJ154591958058,2015-09-03
532,1,TMBKRJ117720495913,2015-03-14
533,1,TMBKRJ977715274626,2015-01-21
534,1,TMBKRJ155770252466,2015-11-16
535,1,TMBKRJ460626899365,2016-01-12
536,1,TMBKRJ260282993345,2015-11-30
537,1,TMBKRJ882916407366,2015-05-14
538,1,TMBKRJ460708367431,2015-12-01
539,1,TMBKRJ474294882904,2016-01-12
540,1,TMBKRJ953465022107,2015-11-19
541,1,TMBKRJ322057499683,2015-08-30
542,1,TMBKRJ216325823163,2015-11-25
543,1,TMBKRJ915407777321,2015-11-10
544,1,TMBKRJ789336007243,2015-05-29
545,1,TMBKRJ853627236429,2015-11-08
546,1,TMBKRJ476686128113,2015-12-01
547,1,TMBKRJ728674817909,2015-10-25
548,1,TMBKRJ563381052267,2015-09-09
549,1,TMBKRJ526887867956,2015-08-23
550,1,TMBKRJ217374785508,2015-09-09
551,1,TMBKRJ575705599522,2016-03-06
552,1,TMBKRJ504144694792,2016-02-04
553,1,TMBKRJ304423294403,2016-01-31
554,1,TMBKRJ433906481441,2015-05-09
555,1,TMBKRJ944541237054,2016-01-25
556,1,TMBKRJ198180911014,2016-02-17
557,1,TMBKRJ435632833455,2016-02-04
558,1,TMBKRJ656165906539,2016-02-17
559,1,TMBKRJ516254815305,2016-02-11
560,1,TMBKRJ227644318909,2015-06-20
561,1,TMBKRJ727495642662,2016-02-06
562,1,TMBKRJ791054251641,2015-05-22
563,1,TMBKRJ166706378367,2015-07-04
564,1,TMBKRJ572664532227,2016-02-20
565,1,TMBKRJ741794149057,2015-03-19
566,1,TMBKRJ173680200248,2016-03-12
567,1,TMBKRJ752900535559,2016-03-04
568,1,TMBKRJ120345492507,2016-04-04
569,1,TMBKRJ595989535781,2015-09-03
570,1,TMBKRJ500018806862,2015-11-30
571,1,TMBKRJ174154100749,2015-11-03
572,1,TMBKRJ795453558208,2015-05-16
573,1,TMBKRJ451105495670,2015-11-08
574,1,TMBKRJ609428424354,2015-04-11
575,1,TMBKRJ680148372757,2015-04-02
576,1,TMBKRJ766197409519,2015-01-25
577,1,TMBKRJ840717307226,2015-01-23
578,1,TMBKRJ548547641221,2015-09-26
579,1,TMBKRJ351787121648,2015-05-12
580,1,TMBKRJ905718547622,2015-10-28
581,1,TMBKRJ998126413758,2014-06-22
582,1,TMBKRJ097346762227,2015-03-14
583,1,TMBKRJ651596181242,2016-04-09
584,1,TMBKRJ794668412192,2016-02-23
585,1,TMBKRJ543544775793,2014-12-24
586,1,TMBKRJ136913199327,2016-04-05
587,1,TMBKRJ536966616122,2014-09-29
588,1,TMBKRJ086084451656,2016-06-03
589,1,TMBKRJ424295279109,2016-05-16
590,1,TMBKRJ404277085898,2016-05-04
591,1,TMBKRJ029153682283,2016-04-30
592,1,TMBKRJ671133642003,2016-05-06
593,1,TMBKRJ173702229398,2016-02-20
594,1,TMBKRJ842965144327,2016-03-29
595,1,TMBKRJ424114949206,2016-02-12
596,1,TMBKRJ580768790390,2016-05-16
597,1,TMBKRJ061193318156,2015-08-08
598,1,TMBKRJ064795052231,2016-02-21
599,1,TMBKRJ681870250811,2016-06-08
600,1,TMBKRJ011255498356,2016-01-17
601,1,TMBKRJ145120664927,2016-01-31
602,1,TMBKRJ921143558464,2015-05-29
603,1,TMBKRJ963123839382,2015-03-25
604,1,TMBKRJ253845983338,2015-09-21
605,1,TMBKRJ217908332072,2016-04-08
606,1,TMBKRJ015737437183,2016-06-16
607,1,TMBKRJ477010584335,2016-03-26
608,1,TMBKRJ628999062324,2016-05-18
609,1,TMBKRJ735280779287,2016-05-04
610,1,TMBKRJ756746944268,2016-02-23
611,1,TMBKRJ551009779250,2016-03-23
612,1,TMBKRJ427136911082,2016-07-11
613,1,TMBKRJ907914343152,2016-06-20
614,1,TMBKRJ722025321121,2016-02-23
615,1,TMBKRJ279482904255,2016-09-03
616,1,TMBKRJ657247993448,2016-03-28
617,1,TMBKRJ089657295871,2016-06-19
618,1,TMBKRJ368692690871,2016-03-08
619,1,TMBKRJ960242599568,2016-05-20
620,1,TMBKRJ682431754032,2016-05-11
621,1,TMBKRJ321204618348,2016-01-07
622,1,TMBKRJ762336048748,2016-02-15
623,1,TMBKRJ215583209404,2016-03-25
624,1,TMBKRJ207684565829,2015-02-18
625,1,TMBKRJ742179150021,2016-04-24
626,1,TMBKRJ429867666149,2015-03-12
627,1,TMBKRJ465267327889,2016-05-06
628,1,TMBKRJ254794082375,2016-03-25
629,1,TMBKRJ718798762922,2015-07-07
630,1,TMBKRJ112685625000,2015-12-07
631,1,TMBKRJ984206365679,2015-08-26
632,1,TMBKRJ061588345109,2015-06-19
633,1,TMBKRJ085712954333,2014-07-17
634,1,TMBKRJ578855537743,2015-06-18
635,1,TMBKRJ074029770152,2015-06-06
636,1,TMBKRJ075322181120,2015-06-28
637,1,TMBKRJ619509423017,2015-03-23
638,1,TMBKRJ953141649160,2016-05-02
639,1,TMBKRJ731526771137,2015-11-21
640,1,TMBKRJ599498766034,2016-01-13
641,1,TMBKRJ929339857767,2015-06-18
642,1,TMBKRJ150265296690,2015-08-01
643,1,TMBKRJ782160133723,2016-02-25
644,1,TMBKRJ578853727947,2016-05-16
645,1,TMBKRJ852270379475,2015-08-02
646,1,TMBKRJ025080086141,2016-05-11
647,1,TMBKRJ101651728438,2016-05-15
648,1,TMBKRJ646907292071,2015-09-23
649,1,TMBKRJ953181101308,2016-07-03
650,1,TMBKRJ941322141044,2015-01-05
651,1,TMBKRJ515708342080,2016-06-05
652,1,TMBKRJ833060413757,2016-06-16
653,1,TMBKRJ448858955328,2016-05-01
654,1,TMBKRJ298895473312,2016-05-16
655,1,TMBKRJ351909675901,2016-06-24
656,1,TMBKRJ163569568618,2015-01-01
657,1,TMBKRJ837619699931,2016-06-18
658,1,TMBKRJ475363478144,2014-07-29
659,1,TMBKRJ778549569282,2015-08-30
660,1,TMBKRJ214921363945,2015-06-28
661,1,TMBKRJ418145409868,2016-01-11
662,1,TMBKRJ423879819448,2015-05-25
663,1,TMBKRJ925488603214,2015-06-29
664,1,TMBKRJ738917097332,2015-06-05
665,1,TMBKRJ442821167901,2016-04-08
666,1,TMBKRJ667599432005,2015-08-04
667,1,TMBKRJ809167548330,2015-05-13
668,1,TMBKRJ115279336157,2015-08-05
669,1,TMBKRJ606815910501,2013-07-11
670,1,TMBKRJ811071565953,2015-07-08
671,1,TMBKRJ199874437698,2015-09-03
672,1,TMBKRJ677951124009,2016-03-25
673,1,TMBKRJ469892500147,2015-08-30
674,1,TMBKRJ695320577547,2015-10-07
675,1,TMBKRJ449819903540,2016-07-09
676,1,TMBKRJ356138251871,2016-07-11
677,1,TMBKRJ295695914021,2016-06-20
678,1,TMBKRJ140957182794,2015-09-11
679,1,TMBKRJ770883432990,2016-08-26
680,1,TMBKRJ713095561934,2016-05-28
681,1,TMBKRJ043454517351,2016-06-15
682,1,TMBKRJ326811093252,2016-05-04
683,1,TMBKRJ912744141451,2016-07-16
684,1,TMBKRJ659541560750,2014-04-04
685,1,TMBKRJ141535656963,2015-08-04
686,1,TMBKRJ667511336266,2016-06-09
687,1,TMBKRJ138957227595,2016-04-08
688,1,TMBKRJ280194522532,2016-05-07
689,1,TMBKRJ287075904930,2015-11-02
690,1,TMBKRJ184836592547,2016-05-29
691,1,TMBKRJ792378875171,2015-12-23
692,1,TMBKRJ096166500567,2016-06-15
693,1,TMBKRJ904055090818,2016-07-01
694,1,TMBKRJ504697207073,2016-07-11
695,1,TMBKRJ238750922025,2016-07-21
696,1,TMBKRJ547826168437,2016-07-27
697,1,TMBKRJ789251272373,2016-08-15
698,1,TMBKRJ631303741233,2015-09-10
699,1,TMBKRJ224411442183,2016-03-25
700,1,TMBKRJ279898313173,2016-07-29
701,1,TMBKRJ227032294358,2016-05-07
702,1,TMBKRJ068069250684,2016-07-29
703,1,TMBKRJ429452382607,2015-12-01
704,1,TMBKRJ413605355094,2016-05-12
705,1,TMBKRJ341057931983,2016-03-31
706,1,TMBKRJ169191534927,2016-09-21
707,1,TMBKRJ656148342962,2016-06-27
708,1,TMBKRJ050636567292,2016-01-20
709,1,TMBKRJ456315656869,2015-08-12
710,1,TMBKRJ361644378791,2015-10-10
711,1,TMBKRJ126484945990,2016-09-13
712,1,TMBKRJ185498167561,2015-08-24
713,1,TMBKRJ392046190740,2016-09-03
714,1,TMBKRJ820622901263,2016-07-29
715,1,TMBKRJ650275278122,2016-08-02
716,1,TMBKRJ871546350196,2016-07-05
717,1,TMBKRJ164414088255,2015-07-21
718,1,TMBKRJ723546199094,2016-06-24
719,1,TMBKRJ245960860523,2015-04-15
720,1,TMBKRJ293765548987,2015-05-29
721,1,TMBKRJ089740941899,2016-07-27
722,1,TMBKRJ392865607804,2016-07-30
723,1,TMBKRJ662842058149,2015-07-08
724,1,TMBKRJ978009231365,2015-09-13
725,1,TMBKRJ078691730640,2015-01-18
726,1,TMBKRJ259352716121,2016-07-04
727,1,TMBKRJ058734053001,2015-04-22
728,1,TMBKRJ004268664023,2016-10-12
729,1,TMBKRJ653486107031,2016-05-11
730,1,TMBKRJ942232674055,2016-09-16
731,1,TMBKRJ252802618406,2016-06-15
732,1,TMBKRJ182103716266,2016-09-09
733,1,TMBKRJ340134827029,2016-09-20
734,1,TMBKRJ698585582440,2016-11-18
735,1,TMBKRJ918566015923,2016-08-04
736,1,TMBKRJ740282961086,2016-07-03
737,1,TMBKRJ163526892622,2016-09-20
738,1,TMBKRJ980340900935,2016-05-01
739,1,TMBKRJ344848023994,2016-09-18
740,1,TMBKRJ712970934862,2016-08-10
741,1,TMBKRJ293722910087,2016-07-29
742,1,TMBKRJ643562799477,2016-07-18
743,1,TMBKRJ725391774010,2016-11-11
744,1,TMBKRJ574726520263,2016-07-31
745,1,TMBKRJ931695562706,2016-08-15
746,1,TMBKRJ768799082359,2016-11-22
747,1,TMBKRJ111044890752,2016-09-12
748,1,TMBKRJ052199049310,2016-09-22
749,1,TMBKRJ365777291025,2016-11-04
750,1,TMBKRJ180304837247,2016-09-03
751,1,TMBKRJ252059932292,2016-06-25
752,1,TMBKRJ788034071135,2016-10-07
753,1,TMBKRJ094751971982,2015-12-18
754,1,TMBKRJ349133771286,2015-09-30
755,1,TMBKRJ705938601390,2015-12-11
756,1,TMBKRJ216306096443,2015-04-17
757,1,TMBKRJ803364302633,2015-10-31
758,1,TMBKRJ859195725955,2015-09-10
759,1,TMBKRJ758991291238,2015-08-25
760,1,TMBKRJ532065606734,2015-08-18
761,1,TMBKRJ400148905167,2015-10-30
762,1,TMBKRJ188497188947,2015-10-29
763,1,TMBKRJ404584932097,2015-10-01
764,1,TMBKRJ004866192865,2016-12-23
765,1,TMBKRJ184644759681,2015-12-05
766,1,TMBKRJ881082040176,2015-08-20
767,1,TMBKRJ228266936986,2015-11-14
768,1,TMBKRJ447387476448,2015-12-02
769,1,TMBKRJ228150641700,2015-12-18
770,1,TMBKRJ351098954347,2015-02-01
771,1,TMBKRJ191844766782,2014-12-10
772,1,TMBKRJ348159544926,2015-07-02
773,1,TMBKRJ901892122320,2015-06-28
774,1,TMBKRJ293083555076,2015-09-10
775,1,TMBKRJ981857812935,2015-06-12
776,1,TMBKRJ824239408941,2015-06-06
777,1,TMBKRJ118612865884,2015-05-04
778,1,TMBKRJ528566978364,2015-09-11
779,1,TMBKRJ954499716024,2015-10-31
780,1,TMBKRJ447128737708,2015-09-19
781,1,TMBKRJ181063645543,2015-03-04
782,1,TMBKRJ949116837732,2015-04-07
783,1,TMBKRJ890171433765,2015-08-29
784,1,TMBKRJ435835038619,2015-09-19
785,1,TMBKRJ257918101306,2016-02-09
786,1,TMBKRJ516976726167,2016-01-25
787,1,TMBKRJ024982276834,2016-02-09
788,1,TMBKRJ525846000215,2015-09-09
789,1,TMBKRJ308325799204,2015-05-04
790,1,TMBKRJ826742361039,2016-11-12
791,1,TMBKRJ039714641930,2015-10-31
792,1,TMBKRJ085482162468,2016-01-29
793,1,TMBKRJ904739813946,2016-03-05
794,1,TMBKRJ825611334169,2015-10-29
795,1,TMBKRJ146006993011,2016-01-01
796,1,TMBKRJ142982577259,2016-02-10
797,1,TMBKRJ128604652579,2016-01-01
798,1,TMBKRJ866748404481,2015-10-31
799,1,TMBKRJ282538996243,2016-01-25
800,1,TMBKRJ417458587552,2016-02-09
801,1,TMBKRJ333630645459,2015-12-27
802,1,TMBKRJ328250374924,2015-04-26
803,1,TMBKRJ242704496737,2015-04-26
804,1,TMBKRJ984752093559,2015-04-06
805,1,TMBKRJ301132013606,2015-09-10
806,1,TMBKRJ961197007327,2015-05-11
807,1,TMBKRJ593517315145,2016-01-01
808,1,TMBKRJ862457025534,2015-12-17
809,1,TMBKRJ257241702054,2015-10-30
810,1,TMBKRJ810866041268,2016-01-27
811,1,TMBKRJ610333248107,2015-11-19
812,1,TMBKRJ938018266554,2015-12-27
813,1,TMBKRJ028027095959,2015-09-01
814,1,TMBKRJ671068705594,2015-03-08
815,1,TMBKRJ282244581435,2015-07-04
816,1,TMBKRJ131267443152,2015-10-09
817,1,TMBKRJ791480918446,2015-10-24
818,1,TMBKRJ340412458936,2015-11-14
819,1,TMBKRJ583183394685,2015-01-10
820,1,TMBKRJ446280062888,2015-12-13
821,1,TMBKRJ815674354295,2015-08-28
822,1,TMBKRJ817939813212,2016-01-20
823,1,TMBKRJ024524473083,2015-12-21
824,1,TMBKRJ276518169339,2015-09-29
825,1,TMBKRJ552536309494,2015-05-31
826,1,TMBKRJ400208720902,2015-12-23
827,1,TMBKRJ371850953070,2015-12-02
828,1,TMBKRJ047629109292,2015-11-06
829,1,TMBKRJ821396376137,2014-08-31
830,1,TMBKRJ120624938886,2015-09-29
831,1,TMBKRJ821325199847,2016-01-29
832,1,TMBKRJ780658888102,2016-01-31
833,1,TMBKRJ345800726136,2015-10-30
834,1,TMBKRJ485386847448,2015-03-15
835,1,TMBKRJ887750657404,2015-10-17
836,1,TMBKRJ443738094805,2015-10-30
837,1,TMBKRJ889423789826,2015-11-21
838,1,TMBKRJ605429276465,2015-12-29
839,1,TMBKRJ201062023189,2015-12-21
840,1,TMBKRJ521900222299,2016-02-29
841,1,TMBKRJ310769938853,2016-01-04
842,1,TMBKRJ542826561266,2015-04-19
843,1,TMBKRJ167029038001,2016-02-02
844,1,TMBKRJ795172794981,2016-03-31
845,1,TMBKRJ948011626162,2015-05-12
846,1,TMBKRJ134435056285,2015-07-04
847,1,TMBKRJ068917180716,2016-02-25
848,1,TMBKRJ120670067611,2015-07-12
849,1,TMBKRJ989097917984,2015-12-18
850,1,TMBKRJ698107015906,2016-03-05
851,1,TMBKRJ844794320538,2015-11-11
852,1,TMBKRJ282590799722,2015-12-06
853,1,TMBKRJ363366535500,2015-05-20
854,1,TMBKRJ878167631566,2016-01-29
855,1,TMBKRJ170464293776,2016-01-31
856,1,TMBKRJ651584965085,2015-11-12
857,1,TMBKRJ269382382556,2015-06-12
858,1,TMBKRJ325003315231,2015-12-13
859,1,TMBKRJ438503478141,2016-02-14
860,1,TMBKRJ028374633307,2015-02-01
861,1,TMBKRJ781343566347,2016-01-17
862,1,TMBKRJ523480126782,2015-05-22
863,1,TMBKRJ148920335148,2015-05-15
864,1,TMBKRJ024696651882,2015-04-13
865,1,TMBKRJ345919413628,2015-10-20
866,1,TMBKRJ569010623238,2015-10-20
867,1,TMBKRJ368589753377,2015-11-19
868,1,TMBKRJ033951561912,2016-05-11
869,1,TMBKRJ771586688485,2016-01-11
870,1,TMBKRJ153664837434,2016-06-27
871,1,TMBKRJ917128543066,2015-06-25
872,1,TMBKRJ199386838683,2015-06-19
873,1,TMBKRJ924483303823,2016-06-24
874,1,TMBKRJ832390522160,2015-10-09
875,1,TMBKRJ511869033450,2015-09-29
876,1,TMBKRJ713575974563,2015-09-01
877,1,TMBKRJ278000339772,2015-04-27
878,1,TMBKRJ630052515255,2016-04-22
879,1,TMBKRJ295101377397,2015-06-17
880,1,TMBKRJ628468892012,2015-09-19
881,1,TMBKRJ889674706081,2016-01-19
882,1,TMBKRJ996485087942,2016-04-06
883,1,TMBKRJ499926200273,2016-02-20
884,1,TMBKRJ044984027500,2016-04-17
885,1,TMBKRJ848675994408,2016-04-09
886,1,TMBKRJ105845776027,2016-04-30
887,1,TMBKRJ120291099844,2016-02-02
888,1,TMBKRJ243588557542,2016-04-01
889,1,TMBKRJ741095068134,2016-04-15
890,1,TMBKRJ700479399509,2016-07-09
891,1,TMBKRJ947437326780,2016-01-04
892,1,TMBKRJ900034205355,2016-05-05
893,1,TMBKRJ492959592422,2015-08-13
894,1,TMBKRJ893040968405,2016-03-29
895,1,TMBKRJ578722485456,2016-03-17
896,1,TMBKRJ847939537636,2016-03-12
897,1,TMBKRJ504519061179,2017-03-12
898,1,TMBKRJ618163887642,2016-05-01
899,1,TMBKRJ303479295433,2016-02-27
900,1,TMBKRJ954550321217,2015-12-02
901,1,TMBKRJ863952899198,2016-04-12
902,1,TMBKRJ374914596572,2016-03-13
903,1,TMBKRJ097828963702,2016-05-12
904,1,TMBKRJ702302291251,2016-03-14
905,1,TMBKRJ712531682524,2016-03-12
906,1,TMBKRJ437108635923,2016-04-09
907,1,TMBKRJ579702944893,2016-06-04
908,1,TMBKRJ676684150327,2016-01-25
909,1,TMBKRJ611753123550,2016-01-22
910,1,TMBKRJ373181799362,2016-02-17
911,1,TMBKRJ405343239978,2015-08-20
912,1,TMBKRJ336205034312,2015-07-30
913,1,TMBKRJ181253108921,2015-07-14
914,1,TMBKRJ783735399448,2016-04-01
915,1,TMBKRJ833793778294,2015-07-05
916,1,TMBKRJ904493253319,2016-03-09
917,1,TMBKRJ219557202688,2016-04-12
918,1,TMBKRJ539484422440,2015-06-13
919,1,TMBKRJ562742073120,2016-01-01
920,1,TMBKRJ649467294818,2016-03-03
921,1,TMBKRJ084827050494,2015-11-13
922,1,TMBKRJ789817382728,2016-02-07
923,1,TMBKRJ395911889064,2015-12-27
924,1,TMBKRJ124043677055,2015-04-27
925,1,TMBKRJ881606358940,2016-05-31
926,1,TMBKRJ412387358009,2016-04-23
927,1,TMBKRJ913987653004,2015-08-10
928,1,TMBKRJ218346323128,2015-03-19
929,1,TMBKRJ645413183322,2016-03-03
930,1,TMBKRJ385915279800,2016-02-28
931,1,TMBKRJ402110944625,2015-08-03
932,1,TMBKRJ636062446712,2015-10-29
933,1,TMBKRJ830593401578,2016-04-18
934,1,TMBKRJ148930304738,2016-01-01
935,1,TMBKRJ428555165776,2016-06-08
936,1,TMBKRJ746684681731,2016-05-02
937,1,TMBKRJ112812805169,2016-05-26
938,1,TMBKRJ141254010720,2016-07-24
939,1,TMBKRJ182891811537,2016-05-06
940,1,TMBKRJ254997355040,2016-06-22
941,1,TMBKRJ107349103907,2015-10-29
942,1,TMBKRJ313713792134,2016-02-14
943,1,TMBKRJ255020864291,2015-07-10
944,1,TMBKRJ304791934018,2015-07-28
945,1,TMBKRJ245864191410,2015-05-29
946,1,TMBKRJ980207336836,2016-04-12
947,1,TMBKRJ894214038215,2015-09-01
948,1,TMBKRJ491573011405,2016-05-28
949,1,TMBKRJ449267027847,2016-05-04
950,1,TMBKRJ970332093701,2015-10-09
951,1,TMBKRJ542218690182,2015-12-05
952,1,TMBKRJ888183491231,2015-11-14
953,1,TMBKRJ732589051806,2016-04-02
954,1,TMBKRJ468395458382,2016-04-23
955,1,TMBKRJ209679111114,2016-06-01
956,1,TMBKRJ853340103251,2016-04-13
957,1,TMBKRJ684127387465,2016-05-18
958,1,TMBKRJ326440441474,2016-08-05
959,1,TMBKRJ999035605685,2016-03-17
960,1,TMBKRJ323909982092,2016-05-30
961,1,TMBKRJ663599238676,2016-03-15
962,1,TMBKRJ957320527781,2016-04-19
963,1,TMBKRJ187192862154,2015-12-02
964,1,TMBKRJ667354226665,2016-02-24
965,1,TMBKRJ954068028777,2016-07-04
966,1,TMBKRJ436615344169,2016-04-30
967,1,TMBKRJ614406473029,2015-08-23
968,1,TMBKRJ887150080185,2016-05-11
969,1,TMBKRJ561756953096,2015-10-21
970,1,TMBKRJ964487762411,2016-07-07
971,1,TMBKRJ249893417874,2016-06-10
972,1,TMBKRJ277007817801,2016-07-04
973,1,TMBKRJ305570111259,2016-07-25
974,1,TMBKRJ746044393044,2015-09-12
975,1,TMBKRJ358422677225,2016-06-26
976,1,TMBKRJ614465061308,2016-07-07
977,1,TMBKRJ440817693853,2016-07-11
978,1,TMBKRJ478480918178,2016-07-20
979,1,TMBKRJ528877793480,2016-04-22
980,1,TMBKRJ191254695355,2016-02-09
981,1,TMBKRJ988438367002,2016-06-08
982,1,TMBKRJ245727715978,2015-11-19
983,1,TMBKRJ223039471771,2016-04-12
984,1,TMBKRJ681836238580,2016-04-25
985,1,TMBKRJ360121420506,2016-08-17
986,1,TMBKRJ941329387282,2015-09-01
987,1,TMBKRJ195190219248,2016-10-10
988,1,TMBKRJ599520460897,2016-03-09
989,1,TMBKRJ369449049774,2016-07-20
990,1,TMBKRJ399842518286,2016-05-28
991,1,TMBKRJ732372316485,2016-07-24
992,1,TMBKRJ922954208520,2016-03-05
993,1,TMBKRJ460106916038,2016-07-08
994,1,TMBKRJ184551072259,2016-03-21
995,1,TMBKRJ178740313847,2016-08-13
996,1,TMBKRJ797417294219,2016-09-27
997,1,TMBKRJ873539272506,2016-07-17
998,1,TMBKRJ260909063145,2016-10-13
999,1,TMBKRJ540990324108,2016-05-24
1000,1,TMBKRJ003450892167,2016-08-02
1001,1,TMBKRJ799578687580,2016-07-08
1002,1,TMBKRJ705187581186,2016-03-09
1003,1,TMBKRJ328922632555,2016-05-12
1004,1,TMBKRJ151552520853,2016-06-18
1005,1,TMBKRJ396657859322,2016-06-27
1006,1,TMBKRJ760900608312,2016-10-10
1007,1,TMBKRJ337850611963,2016-02-22
1008,1,TMBKRJ538793145450,2016-08-24
1009,1,TMBKRJ915216047009,2016-09-28
1010,1,TMBKRJ983027723545,2016-07-04
1011,1,TMBKRJ994943087233,2016-07-30
1012,1,TMBKRJ853666597095,2016-05-26
1013,1,TMBKRJ889583233171,2016-07-30
1014,1,TMBKRJ820746882439,2016-10-04
1015,1,TMBKRJ080579740989,2016-10-04
1016,1,TMBKRJ200764022880,2016-07-24
1017,1,TMBKRJ813155487745,2015-05-31
1018,1,TMBKRJ745044990708,2016-01-01
1019,1,TMBKRJ919007173271,2016-06-07
1020,1,TMBKRJ544910323039,2015-11-21
1021,1,TMBKRJ836619776409,2015-04-24
1022,1,TMBKRJ213340485101,2013-12-03
1023,1,TMBKRJ862527797959,2016-10-13
1024,1,TMBKRJ036195302821,2016-06-18
1025,1,TMBKRJ412648075375,2016-09-20
1026,1,TMBKRJ269969097527,2015-05-19
1027,1,TMBKRJ725312603896,2016-05-12
1028,1,TMBKRJ166809307251,2015-02-26
1029,1,TMBKRJ142070428151,2016-07-12
1030,1,TMBKRJ588755593740,2015-10-01
1031,1,TMBKRJ375163116798,2016-04-15
1032,1,TMBKRJ741989430887,2016-06-19
1033,1,TMBKRJ298364810860,2015-03-13
1034,1,TMBKRJ351216109094,2016-08-26
1035,1,TMBKRJ364239614501,2016-08-29
1036,1,TMBKRJ126168901154,2016-07-20
1037,1,TMBKRJ026832718062,2016-07-17
1038,1,TMBKRJ763928172532,2013-12-19
1039,1,TMBKRJ607537623270,2016-04-22
1040,1,TMBKRJ189418440466,2016-11-19
1041,1,TMBKRJ860409186635,2016-05-08
