id,name
1,HB-0
2,BCG
3,POLIO 1
4,DPT-HB-HiB 1
5,POLIO 2
6,DPT-HB-HiB 2
7,POLIO 3
8,DPT-HB-HiB 3
9,POLIO 4
10,IPV
11,MR
12,HEPATITIS
13,BOOSTER DPT-HB-HiB 1
14,BOOTER DPT-HB-HiB 2
15,BOOSTER DPT-HB-HiB 3
16,BOOSTER MR